EPS7008-UFSC - Tutorial 5 - Métodos de Regressão
…
E também podemos utilizar as funções glance(), augment() e tidy() todas do pacote broom

glance(model_sal_exp)

# A tibble: 1 × 12
  r.squared adj.r.squared sigma statistic  p.value    df logLik   AIC   BIC
      <dbl>         <dbl> <dbl>     <dbl>    <dbl> <dbl>  <dbl> <dbl> <dbl>
1     0.957         0.955 5788.      623. 1.14e-20     1  -301.  609.  613.
# ℹ 3 more variables: deviance <dbl>, df.residual <int>, nobs <int>

augment(model_sal_exp)

# A tibble: 30 × 8
   Salary YearsExperience .fitted .resid   .hat .sigma .cooksd .std.resid
    <dbl>           <dbl>   <dbl>  <dbl>  <dbl>  <dbl>   <dbl>      <dbl>
 1  39343             1.1  36187.  3156. 0.109   5859. 0.0205       0.578
 2  46205             1.3  38077.  8128. 0.102   5659. 0.125        1.48 
 3  37731             1.5  39967. -2236. 0.0956  5877. 0.00872     -0.406
 4  43525             2    44692. -1167. 0.0803  5890. 0.00193     -0.210
 5  39891             2.2  46582. -6691. 0.0748  5740. 0.0584      -1.20 
 6  56642             2.9  53197.  3445. 0.0583  5855. 0.0116       0.613
 7  60150             3    54142.  6008. 0.0562  5773. 0.0340       1.07 
 8  54445             3.2  56032. -1587. 0.0525  5886. 0.00220     -0.282
 9  64445             3.2  56032.  8413. 0.0525  5655. 0.0617       1.49 
10  57189             3.7  60757. -3568. 0.0445  5853. 0.00926     -0.631
# ℹ 20 more rows
…
