EPS7008-UFSC - Tutorial 5 - Métodos de Regressão e Classificação em R
…
logistic_model <- logistic_reg() %>% 
  set_engine("glm") %>% 
  set_mode("classification")

logistic_fit <- logistic_model %>% 
  fit(Lucro_fac ~ duracao + nota_imdb + num_avaliacoes,
      data = treino)

class_preds <- logistic_fit %>% 
  predict(new_data = teste,
          type = "class")

class_preds

# A tibble: 2,837 × 1
   .pred_class
   <fct>      
 1 no         
 2 no         
 3 yes        
 4 no         
 5 no         
 6 no         
 7 no         
 8 no         
 9 no         
10 no         
# ℹ 2,827 more rows
…
Plotando os resultados

Vamos ver como ficaram as previsões

Code

logistic_fit_vc %>% 
  collect_predictions()

# A tibble: 8,504 × 7
   .pred_class .pred_yes .pred_no id      .row Lucro_fac .config             
   <fct>           <dbl>    <dbl> <chr>  <int> <fct>     <chr>               
 1 no             0.383     0.617 Fold01    21 <NA>      Preprocessor1_Model1
 2 no             0.0885    0.911 Fold01    27 <NA>      Preprocessor1_Model1
 3 no             0.0901    0.910 Fold01    35 no        Preprocessor1_Model1
 4 no             0.113     0.887 Fold01    48 <NA>      Preprocessor1_Model1
 5 no             0.120     0.880 Fold01    60 <NA>      Preprocessor1_Model1
 6 no             0.164     0.836 Fold01    77 <NA>      Preprocessor1_Model1
 7 no             0.288     0.712 Fold01    95 <NA>      Preprocessor1_Model1
 8 yes            0.703     0.297 Fold01    96 no        Preprocessor1_Model1
 9 yes            0.699     0.301 Fold01    97 no        Preprocessor1_Model1
10 no             0.107     0.893 Fold01   111 <NA>      Preprocessor1_Model1
# ℹ 8,494 more rows
…
