EPS7008-UFSC - Tutorial 6 - Classificação com Tidymodels
…
Agora precisamos criar uma grid para o algoritmo procurar os melhores valores para os parâmetros mencionados anteriormente.

tree_grid <- grid_regular(cost_complexity(),
                          tree_depth(),
                          levels = 5)

Como temos dois parâmetros para tuning, o tree_grid retornará 25 valores, 5 para cada parâmetro.

tree_grid

# A tibble: 25 × 2
   cost_complexity tree_depth
             <dbl>      <int>
 1    0.0000000001          1
 2    0.0000000178          1
 3    0.00000316            1
 4    0.000562              1
 5    0.1                   1
 6    0.0000000001          4
 7    0.0000000178          4
 8    0.00000316            4
 9    0.000562              4
10    0.1                   4
# ℹ 15 more rows
…
